<?xml version="1.0" encoding="UTF-8"?>
<testng-results ignored="0" total="1" passed="0" failed="1" skipped="0">
  <reporter-output>
  </reporter-output>
  <suite started-at="2023-04-25T16:19:31Z" name="Command line suite" finished-at="2023-04-25T16:19:33Z" duration-ms="1799">
    <groups>
    </groups>
    <test started-at="2023-04-25T16:19:31Z" name="Command line test" finished-at="2023-04-25T16:19:33Z" duration-ms="1799">
      <class name="test.com.baeldung.testng.SeleniumWithTestNGLiveTest">
        <test-method is-config="true" signature="setUp()[pri:0, instance:test.com.baeldung.testng.SeleniumWithTestNGLiveTest@7181ae3f]" started-at="2023-04-25T18:19:20Z" name="setUp" finished-at="2023-04-25T18:19:31Z" duration-ms="11225" status="PASS">
          <reporter-output>
          </reporter-output>
        </test-method> <!-- setUp -->
        <test-method signature="whenAboutBaeldungIsLoaded_thenAboutEugenIsMentionedOnPage()[pri:0, instance:test.com.baeldung.testng.SeleniumWithTestNGLiveTest@7181ae3f]" started-at="2023-04-25T18:19:31Z" name="whenAboutBaeldungIsLoaded_thenAboutEugenIsMentionedOnPage" finished-at="2023-04-25T18:19:33Z" duration-ms="1690" status="FAIL">
          <exception class="org.junit.ComparisonFailure">
            <message>
              <![CDATA[expected:<[About Baeldung | ]Baeldung> but was:<[]Baeldung>]]>
            </message>
            <full-stacktrace>
              <![CDATA[org.junit.ComparisonFailure: expected:<[About Baeldung | ]Baeldung> but was:<[]Baeldung>
	at org.junit.Assert.assertEquals(Assert.java:117)
	at org.junit.Assert.assertEquals(Assert.java:146)
	at test.com.baeldung.testng.SeleniumWithTestNGLiveTest.whenAboutBaeldungIsLoaded_thenAboutEugenIsMentionedOnPage(SeleniumWithTestNGLiveTest.java:33)
	at java.base/jdk.internal.reflect.DirectMethodHandleAccessor.invoke(DirectMethodHandleAccessor.java:104)
	at java.base/java.lang.reflect.Method.invoke(Method.java:577)
	at org.testng.internal.MethodInvocationHelper.invokeMethod(MethodInvocationHelper.java:104)
	at org.testng.internal.Invoker.invokeMethod(Invoker.java:645)
	at org.testng.internal.Invoker.invokeTestMethod(Invoker.java:851)
	at org.testng.internal.Invoker.invokeTestMethods(Invoker.java:1177)
	at org.testng.internal.TestMethodWorker.invokeTestMethods(TestMethodWorker.java:129)
	at org.testng.internal.TestMethodWorker.run(TestMethodWorker.java:112)
	at org.testng.TestRunner.privateRun(TestRunner.java:756)
	at org.testng.TestRunner.run(TestRunner.java:610)
	at org.testng.SuiteRunner.runTest(SuiteRunner.java:387)
	at org.testng.SuiteRunner.runSequentially(SuiteRunner.java:382)
	at org.testng.SuiteRunner.privateRun(SuiteRunner.java:340)
	at org.testng.SuiteRunner.run(SuiteRunner.java:289)
	at org.testng.SuiteRunnerWorker.runSuite(SuiteRunnerWorker.java:52)
	at org.testng.SuiteRunnerWorker.run(SuiteRunnerWorker.java:86)
	at org.testng.TestNG.runSuitesSequentially(TestNG.java:1293)
	at org.testng.TestNG.runSuitesLocally(TestNG.java:1218)
	at org.testng.TestNG.runSuites(TestNG.java:1133)
	at org.testng.TestNG.run(TestNG.java:1104)
	at org.apache.maven.surefire.testng.TestNGExecutor.run(TestNGExecutor.java:77)
	at org.apache.maven.surefire.testng.TestNGDirectoryTestSuite.executeMulti(TestNGDirectoryTestSuite.java:159)
	at org.apache.maven.surefire.testng.TestNGDirectoryTestSuite.execute(TestNGDirectoryTestSuite.java:99)
	at org.apache.maven.surefire.testng.TestNGProvider.invoke(TestNGProvider.java:106)
	at java.base/jdk.internal.reflect.DirectMethodHandleAccessor.invoke(DirectMethodHandleAccessor.java:104)
	at java.base/java.lang.reflect.Method.invoke(Method.java:577)
	at org.apache.maven.surefire.util.ReflectionUtils.invokeMethodWithArray(ReflectionUtils.java:189)
	at org.apache.maven.surefire.booter.ProviderFactory$ProviderProxy.invoke(ProviderFactory.java:165)
	at org.apache.maven.surefire.booter.ProviderFactory.invokeProvider(ProviderFactory.java:85)
	at org.apache.maven.surefire.booter.ForkedBooter.runSuitesInProcess(ForkedBooter.java:115)
	at org.apache.maven.surefire.booter.ForkedBooter.main(ForkedBooter.java:75)
]]>
            </full-stacktrace>
          </exception> <!-- org.junit.ComparisonFailure -->
          <reporter-output>
          </reporter-output>
        </test-method> <!-- whenAboutBaeldungIsLoaded_thenAboutEugenIsMentionedOnPage -->
        <test-method is-config="true" signature="tearDown()[pri:0, instance:test.com.baeldung.testng.SeleniumWithTestNGLiveTest@7181ae3f]" started-at="2023-04-25T18:19:33Z" name="tearDown" finished-at="2023-04-25T18:19:33Z" duration-ms="205" status="PASS">
          <reporter-output>
          </reporter-output>
        </test-method> <!-- tearDown -->
      </class> <!-- test.com.baeldung.testng.SeleniumWithTestNGLiveTest -->
    </test> <!-- Command line test -->
  </suite> <!-- Command line suite -->
</testng-results>
